Do they know…where they’re going to?
…
databraryr::download_session_csv() |> 
  readr::read_csv(show_col_types = FALSE)

# A tibble: 25 × 4
   `session-id` `session-name`                  `session-date` `session-release`
          <dbl> <chr>                           <chr>          <chr>            
 1         6256 Advisory Board Meeting          2013-10-28     PUBLIC           
 2         6257 Advisory Board Meeting          2014-04-07     PUBLIC           
 3         6540 Advisory Board Meeting          2014-10-17     PUBLIC           
 4         7821 SRCD Preconference Workshop     2015-03-18     PUBLIC           
 5         8460 Advisory Board Meeting          2015-05-11     PUBLIC           
 6         9224 Regional Workshop at NYU (Slid… 2015-09-18     PUBLIC           
 7         9578 CDS Preconference Workshop      2015-10-08     PUBLIC           
 8         9807 Top-level materials             materials      <NA>             
 9        10068 Regional Workshop in Philadelp… 2015-11-20     PUBLIC           
10        10991 Regional Workshop at Penn State 2016-03-25     PUBLIC           
# ℹ 15 more rows
…
